{
  "type": "tardis:drafting_table",
  "keys": {
    "a": {
      "item": "minecraft:anvil"
    },
    "d": {
      "item": "minecraft:diamond"
    }
  },
  "pattern": [
    " d ",
    " a ",
    "   "
  ],
  "result": {
    "item": "tardis:drafting_table"
  },
  "tools": [
    {
      "time": 40,
      "tool": "welding"
    }
  ]
}